…
    flight.data.y2018

    ## # A tibble: 949,283 × 6
    ##    FL_DATE    DEST  CARRIER_DELAY WEATHER_DELAY AIR_TIME CRS_ARR_TIME
    ##    <date>     <chr>         <dbl>         <dbl>    <dbl>        <dbl>
    ##  1 2018-01-01 TPA              NA            NA      158         2325
    ##  2 2018-01-01 JFK              NA            NA      218         1756
    ##  3 2018-01-01 SLC              NA            NA       83         1605
    ##  4 2018-01-01 LAX              NA            NA       85          750
    ##  5 2018-01-01 MCI              NA            NA       60         2138
    ##  6 2018-01-01 ATL               0             0       68         1523
    ##  7 2018-01-01 TPA              NA            NA       65         2015
    ##  8 2018-01-01 DTW              NA            NA      141         1453
    ##  9 2018-01-01 MCO              27             0       66         2131
    ## 10 2018-01-01 ATL              NA            NA       64         1004
    ## # … with 949,273 more rows
…
